395749.846
318949.512
316897.808
327978.220
333528.077
334334.419
334093.907
333273.435
331554.179
329840.481
328722.715
328750.696
329348.715
329348.903
329282.312
329642.630
329593.374
329459.862
329719.508
330176.939
