i = 1, Recos = set(['1', '7'])
i = 1, Recos = set(['1', '7'])
i = 1, Recos = set(['1'])
i = 1, Recos = set(['1'])
i = 2, Recos = set(['2', '7'])
j = 3, Recos = set(['3', '5'])
i = 2, Recos = set(['2'])
j = 5, Recos = set(['3', '5', '6'])
i = 2, Recos = set(['2', '4'])
j = 6, Recos = set(['5', '6'])
i = 3, Recos = set(['3', '4'])
j = 6, Recos = set(['7', '6'])
i = 3, Recos = set(['3', '4'])
i = 4, Recos = set(['3', '2', '4'])
j = 6, Recos = set(['7', '6'])
i = 4, Recos = set(['3', '4'])
j = 7, Recos = set(['1', '7', '6'])
1	['1', '7', '1', '7', '1', '1']
3	['3', '5', '3', '4', '3', '4']
2	['2', '7', '2', '2', '4']
5	['3', '5', '6']
4	['3', '2', '4', '3', '4']
7	['1', '7', '6']
6	['5', '6', '7', '6', '7', '6']
