density = 32.73602711905355 |S| = 132453 Edges = 4335985.0
density = 52.55296554540946 |S| = 34277 Edges = 1801358.0
density = 78.02685185185184 |S| = 9720 Edges = 758420.9999999999
density = 103.76529338327092 |S| = 3204 Edges = 332464.0
density = 134.35458786936238 |S| = 1286 Edges = 172780.00000000003
density = 103.7751937984496 |S| = 258 Edges = 26774.0
density = 67.65693430656934 |S| = 137 Edges = 9269.0
density = 67.65693430656934 |S| = 0 Edges = 0.0
